<?xml version="1.0" encoding="UTF-8"?>
<robot generator="Robot 7.0 (Python 3.11.4 on win32)" generated="2024-04-04T13:47:35.082466" rpa="false" schemaversion="5">
<suite id="s1" name="Api Test" source="C:\Users\Windows-10\Desktop\Automation\api\api_test.robot">
<test id="s1-t1" name="GET - All Users" line="6">
<kw name="Create Session" owner="RequestsLibrary">
<msg time="2024-04-04T13:47:35.164541" level="INFO">Creating Session using : alias=reqres, url=https://reqres.in/api, headers={},                     cookies={}, auth=None, timeout=None, proxies=None, verify=False,                     debug=0 </msg>
<arg>reqres</arg>
<arg>https://reqres.in/api</arg>
<doc>Create Session: create a HTTP session to a server</doc>
<status status="PASS" start="2024-04-04T13:47:35.164541" elapsed="0.000000"/>
</kw>
<kw name="GET On Session" owner="RequestsLibrary">
<msg time="2024-04-04T13:47:35.265567" level="INFO">GET Request : url=https://reqres.in/api/users 
 path_url=/api/users 
 headers={'User-Agent': 'python-requests/2.31.0', 'Accept-Encoding': 'gzip, deflate', 'Accept': '*/*', 'Connection': 'keep-alive'} 
 body=None 
 </msg>
<msg time="2024-04-04T13:47:35.265567" level="INFO">GET Response : url=https://reqres.in/api/users 
 status=200, reason=OK 
 headers={'Date': 'Thu, 04 Apr 2024 06:47:35 GMT', 'Content-Type': 'application/json; charset=utf-8', 'Transfer-Encoding': 'chunked', 'Connection': 'keep-alive', 'Report-To': '{"group":"heroku-nel","max_age":3600,"endpoints":[{"url":"https://nel.heroku.com/reports?ts=1712121909&amp;sid=c4c9725f-1ab0-44d8-820f-430df2718e11&amp;s=ggcWpii3nklczzFMflrt0wJtDmL8MeAGz7IPYuBxCxc%3D"}]}', 'Reporting-Endpoints': 'heroku-nel=https://nel.heroku.com/reports?ts=1712121909&amp;sid=c4c9725f-1ab0-44d8-820f-430df2718e11&amp;s=ggcWpii3nklczzFMflrt0wJtDmL8MeAGz7IPYuBxCxc%3D', 'Nel': '{"report_to":"heroku-nel","max_age":3600,"success_fraction":0.005,"failure_fraction":0.05,"response_headers":["Via"]}', 'X-Powered-By': 'Express', 'Access-Control-Allow-Origin': '*', 'Etag': 'W/"3e4-2RLXvr5wTg9YQ6aH95CkYoFNuO8"', 'Via': '1.1 vegur', 'Cache-Control': 'max-age=14400', 'CF-Cache-Status': 'HIT', 'Age': '663', 'Vary': 'Accept-Encoding', 'Server': 'cloudflare', 'CF-RAY': '86ef590fbdc745bf-BKK', 'Content-Encoding': 'gzip'} 
 body={"page":1,"per_page":6,"total":12,"total_pages":2,"data":[{"id":1,"email":"george.bluth@reqres.in","first_name":"George","last_name":"Bluth","avatar":"https://reqres.in/img/faces/1-image.jpg"},{"id":2,"email":"janet.weaver@reqres.in","first_name":"Janet","last_name":"Weaver","avatar":"https://reqres.in/img/faces/2-image.jpg"},{"id":3,"email":"emma.wong@reqres.in","first_name":"Emma","last_name":"Wong","avatar":"https://reqres.in/img/faces/3-image.jpg"},{"id":4,"email":"eve.holt@reqres.in","first_name":"Eve","last_name":"Holt","avatar":"https://reqres.in/img/faces/4-image.jpg"},{"id":5,"email":"charles.morris@reqres.in","first_name":"Charles","last_name":"Morris","avatar":"https://reqres.in/img/faces/5-image.jpg"},{"id":6,"email":"tracey.ramos@reqres.in","first_name":"Tracey","last_name":"Ramos","avatar":"https://reqres.in/img/faces/6-image.jpg"}],"support":{"url":"https://reqres.in/#support-heading","text":"To keep ReqRes free, contributions towards server costs are appreciated!"}} 
 </msg>
<msg time="2024-04-04T13:47:35.266568" level="INFO">C:\Users\Windows-10\AppData\Local\Programs\Python\Python311\Lib\site-packages\urllib3\connectionpool.py:1103: InsecureRequestWarning: Unverified HTTPS request is being made to host 'reqres.in'. Adding certificate verification is strongly advised. See: https://urllib3.readthedocs.io/en/latest/advanced-usage.html#tls-warnings
  warnings.warn(</msg>
<msg time="2024-04-04T13:47:35.266568" level="INFO">${response} = &lt;Response [200]&gt;</msg>
<var>${response}</var>
<arg>reqres</arg>
<arg>/users</arg>
<doc>Sends a GET request on a previously created HTTP Session.</doc>
<status status="PASS" start="2024-04-04T13:47:35.164541" elapsed="0.102027"/>
</kw>
<kw name="Should Be Equal As Strings" owner="BuiltIn">
<msg time="2024-04-04T13:47:35.267569" level="INFO">Argument types are:
&lt;class 'int'&gt;
&lt;class 'str'&gt;</msg>
<arg>${response.status_code}</arg>
<arg>200</arg>
<doc>Fails if objects are unequal after converting them to strings.</doc>
<status status="PASS" start="2024-04-04T13:47:35.266568" elapsed="0.001001"/>
</kw>
<kw name="Create List" owner="BuiltIn">
<msg time="2024-04-04T13:47:35.267569" level="INFO">${ArrayStorage} = []</msg>
<var>${ArrayStorage}</var>
<doc>Returns a list containing given items.</doc>
<status status="PASS" start="2024-04-04T13:47:35.267569" elapsed="0.000000"/>
</kw>
<for flavor="IN">
<iter>
<kw name="Append To List" owner="Collections">
<arg>${ArrayStorage}</arg>
<arg>${user}</arg>
<doc>Adds ``values`` to the end of ``list``.</doc>
<status status="PASS" start="2024-04-04T13:47:35.267569" elapsed="0.001001"/>
</kw>
<var name="${user}">{'id': 1, 'email': 'george.bluth@reqres.in', 'first_name': 'George', 'last_name': 'Bluth', 'avatar': 'https://reqres.in/img/faces/1-image.jpg'}</var>
<status status="PASS" start="2024-04-04T13:47:35.267569" elapsed="0.001001"/>
</iter>
<iter>
<kw name="Append To List" owner="Collections">
<arg>${ArrayStorage}</arg>
<arg>${user}</arg>
<doc>Adds ``values`` to the end of ``list``.</doc>
<status status="PASS" start="2024-04-04T13:47:35.268570" elapsed="0.000000"/>
</kw>
<var name="${user}">{'id': 2, 'email': 'janet.weaver@reqres.in', 'first_name': 'Janet', 'last_name': 'Weaver', 'avatar': 'https://reqres.in/img/faces/2-image.jpg'}</var>
<status status="PASS" start="2024-04-04T13:47:35.268570" elapsed="0.000000"/>
</iter>
<iter>
<kw name="Append To List" owner="Collections">
<arg>${ArrayStorage}</arg>
<arg>${user}</arg>
<doc>Adds ``values`` to the end of ``list``.</doc>
<status status="PASS" start="2024-04-04T13:47:35.268570" elapsed="0.000000"/>
</kw>
<var name="${user}">{'id': 3, 'email': 'emma.wong@reqres.in', 'first_name': 'Emma', 'last_name': 'Wong', 'avatar': 'https://reqres.in/img/faces/3-image.jpg'}</var>
<status status="PASS" start="2024-04-04T13:47:35.268570" elapsed="0.000000"/>
</iter>
<iter>
<kw name="Append To List" owner="Collections">
<arg>${ArrayStorage}</arg>
<arg>${user}</arg>
<doc>Adds ``values`` to the end of ``list``.</doc>
<status status="PASS" start="2024-04-04T13:47:35.268570" elapsed="0.000000"/>
</kw>
<var name="${user}">{'id': 4, 'email': 'eve.holt@reqres.in', 'first_name': 'Eve', 'last_name': 'Holt', 'avatar': 'https://reqres.in/img/faces/4-image.jpg'}</var>
<status status="PASS" start="2024-04-04T13:47:35.268570" elapsed="0.000000"/>
</iter>
<iter>
<kw name="Append To List" owner="Collections">
<arg>${ArrayStorage}</arg>
<arg>${user}</arg>
<doc>Adds ``values`` to the end of ``list``.</doc>
<status status="PASS" start="2024-04-04T13:47:35.268570" elapsed="0.000000"/>
</kw>
<var name="${user}">{'id': 5, 'email': 'charles.morris@reqres.in', 'first_name': 'Charles', 'last_name': 'Morris', 'avatar': 'https://reqres.in/img/faces/5-image.jpg'}</var>
<status status="PASS" start="2024-04-04T13:47:35.268570" elapsed="0.000000"/>
</iter>
<iter>
<kw name="Append To List" owner="Collections">
<arg>${ArrayStorage}</arg>
<arg>${user}</arg>
<doc>Adds ``values`` to the end of ``list``.</doc>
<status status="PASS" start="2024-04-04T13:47:35.269571" elapsed="0.000000"/>
</kw>
<var name="${user}">{'id': 6, 'email': 'tracey.ramos@reqres.in', 'first_name': 'Tracey', 'last_name': 'Ramos', 'avatar': 'https://reqres.in/img/faces/6-image.jpg'}</var>
<status status="PASS" start="2024-04-04T13:47:35.269571" elapsed="0.000000"/>
</iter>
<var>${user}</var>
<value>@{response.json()['data']}</value>
<status status="PASS" start="2024-04-04T13:47:35.267569" elapsed="0.002002"/>
</for>
<kw name="Log" owner="BuiltIn">
<msg time="2024-04-04T13:47:35.269571" level="INFO">[{'id': 1, 'email': 'george.bluth@reqres.in', 'first_name': 'George', 'last_name': 'Bluth', 'avatar': 'https://reqres.in/img/faces/1-image.jpg'}, {'id': 2, 'email': 'janet.weaver@reqres.in', 'first_name': 'Janet', 'last_name': 'Weaver', 'avatar': 'https://reqres.in/img/faces/2-image.jpg'}, {'id': 3, 'email': 'emma.wong@reqres.in', 'first_name': 'Emma', 'last_name': 'Wong', 'avatar': 'https://reqres.in/img/faces/3-image.jpg'}, {'id': 4, 'email': 'eve.holt@reqres.in', 'first_name': 'Eve', 'last_name': 'Holt', 'avatar': 'https://reqres.in/img/faces/4-image.jpg'}, {'id': 5, 'email': 'charles.morris@reqres.in', 'first_name': 'Charles', 'last_name': 'Morris', 'avatar': 'https://reqres.in/img/faces/5-image.jpg'}, {'id': 6, 'email': 'tracey.ramos@reqres.in', 'first_name': 'Tracey', 'last_name': 'Ramos', 'avatar': 'https://reqres.in/img/faces/6-image.jpg'}]</msg>
<arg>${ArrayStorage}</arg>
<doc>Logs the given message with the given level.</doc>
<status status="PASS" start="2024-04-04T13:47:35.269571" elapsed="0.000000"/>
</kw>
<status status="PASS" start="2024-04-04T13:47:35.163540" elapsed="0.106031"/>
</test>
<test id="s1-t2" name="GET - User Info" line="16">
<kw name="Create Session" owner="RequestsLibrary">
<msg time="2024-04-04T13:47:35.270572" level="INFO">Creating Session using : alias=reqres, url=https://reqres.in/api, headers={},                     cookies={}, auth=None, timeout=None, proxies=None, verify=False,                     debug=0 </msg>
<arg>reqres</arg>
<arg>https://reqres.in/api</arg>
<doc>Create Session: create a HTTP session to a server</doc>
<status status="PASS" start="2024-04-04T13:47:35.270572" elapsed="0.000000"/>
</kw>
<kw name="GET On Session" owner="RequestsLibrary">
<msg time="2024-04-04T13:47:35.355270" level="INFO">GET Request : url=https://reqres.in/api/users/1 
 path_url=/api/users/1 
 headers={'User-Agent': 'python-requests/2.31.0', 'Accept-Encoding': 'gzip, deflate', 'Accept': '*/*', 'Connection': 'keep-alive'} 
 body=None 
 </msg>
<msg time="2024-04-04T13:47:35.355270" level="INFO">GET Response : url=https://reqres.in/api/users/1 
 status=200, reason=OK 
 headers={'Date': 'Thu, 04 Apr 2024 06:47:35 GMT', 'Content-Type': 'application/json; charset=utf-8', 'Transfer-Encoding': 'chunked', 'Connection': 'keep-alive', 'Report-To': '{"group":"heroku-nel","max_age":3600,"endpoints":[{"url":"https://nel.heroku.com/reports?ts=1705698197&amp;sid=c4c9725f-1ab0-44d8-820f-430df2718e11&amp;s=WSiDj1rr3duEAfpk8Goe1GEAiMqwHt6O9GuLh7HmWa0%3D"}]}', 'Reporting-Endpoints': 'heroku-nel=https://nel.heroku.com/reports?ts=1705698197&amp;sid=c4c9725f-1ab0-44d8-820f-430df2718e11&amp;s=WSiDj1rr3duEAfpk8Goe1GEAiMqwHt6O9GuLh7HmWa0%3D', 'Nel': '{"report_to":"heroku-nel","max_age":3600,"success_fraction":0.005,"failure_fraction":0.05,"response_headers":["Via"]}', 'X-Powered-By': 'Express', 'Access-Control-Allow-Origin': '*', 'Etag': 'W/"118-P3iKcVpIgCj9HqYeOOrGLX8qJVc"', 'Via': '1.1 vegur', 'Cache-Control': 'max-age=14400', 'CF-Cache-Status': 'HIT', 'Age': '5106', 'Vary': 'Accept-Encoding', 'Server': 'cloudflare', 'CF-RAY': '86ef59106aa74b94-BKK', 'Content-Encoding': 'gzip'} 
 body={"data":{"id":1,"email":"george.bluth@reqres.in","first_name":"George","last_name":"Bluth","avatar":"https://reqres.in/img/faces/1-image.jpg"},"support":{"url":"https://reqres.in/#support-heading","text":"To keep ReqRes free, contributions towards server costs are appreciated!"}} 
 </msg>
<msg time="2024-04-04T13:47:35.355270" level="INFO">C:\Users\Windows-10\AppData\Local\Programs\Python\Python311\Lib\site-packages\urllib3\connectionpool.py:1103: InsecureRequestWarning: Unverified HTTPS request is being made to host 'reqres.in'. Adding certificate verification is strongly advised. See: https://urllib3.readthedocs.io/en/latest/advanced-usage.html#tls-warnings
  warnings.warn(</msg>
<msg time="2024-04-04T13:47:35.355270" level="INFO">${response} = &lt;Response [200]&gt;</msg>
<var>${response}</var>
<arg>reqres</arg>
<arg>/users/1</arg>
<doc>Sends a GET request on a previously created HTTP Session.</doc>
<status status="PASS" start="2024-04-04T13:47:35.270572" elapsed="0.084698"/>
</kw>
<kw name="Should Be Equal As Strings" owner="BuiltIn">
<msg time="2024-04-04T13:47:35.356273" level="INFO">Argument types are:
&lt;class 'int'&gt;
&lt;class 'str'&gt;</msg>
<arg>${response.status_code}</arg>
<arg>200</arg>
<doc>Fails if objects are unequal after converting them to strings.</doc>
<status status="PASS" start="2024-04-04T13:47:35.355270" elapsed="0.001003"/>
</kw>
<kw name="Set Variable" owner="BuiltIn">
<msg time="2024-04-04T13:47:35.356273" level="INFO">${Objects} = {'id': 1, 'email': 'george.bluth@reqres.in', 'first_name': 'George', 'last_name': 'Bluth', 'avatar': 'https://reqres.in/img/faces/1-image.jpg'}</msg>
<var>${Objects}</var>
<arg>${response.json()['data']}</arg>
<doc>Returns the given values which can then be assigned to a variables.</doc>
<status status="PASS" start="2024-04-04T13:47:35.356273" elapsed="0.000000"/>
</kw>
<kw name="Log" owner="BuiltIn">
<msg time="2024-04-04T13:47:35.356273" level="INFO">{'id': 1, 'email': 'george.bluth@reqres.in', 'first_name': 'George', 'last_name': 'Bluth', 'avatar': 'https://reqres.in/img/faces/1-image.jpg'}</msg>
<arg>${Objects}</arg>
<doc>Logs the given message with the given level.</doc>
<status status="PASS" start="2024-04-04T13:47:35.356273" elapsed="0.000000"/>
</kw>
<status status="PASS" start="2024-04-04T13:47:35.270572" elapsed="0.086701"/>
</test>
<test id="s1-t3" name="POST - Create User" line="23">
<kw name="Create Session" owner="RequestsLibrary">
<msg time="2024-04-04T13:47:35.357273" level="INFO">Creating Session using : alias=reqres, url=https://reqres.in/api, headers={},                     cookies={}, auth=None, timeout=None, proxies=None, verify=False,                     debug=0 </msg>
<arg>reqres</arg>
<arg>https://reqres.in/api</arg>
<doc>Create Session: create a HTTP session to a server</doc>
<status status="PASS" start="2024-04-04T13:47:35.357273" elapsed="0.000000"/>
</kw>
<kw name="Create Dictionary" owner="BuiltIn">
<msg time="2024-04-04T13:47:35.358274" level="INFO">${headers} = {'Content-Type': 'application/json'}</msg>
<var>${headers}</var>
<arg>Content-Type=application/json</arg>
<doc>Creates and returns a dictionary based on the given ``items``.</doc>
<status status="PASS" start="2024-04-04T13:47:35.357273" elapsed="0.001001"/>
</kw>
<kw name="Create Dictionary" owner="BuiltIn">
<msg time="2024-04-04T13:47:35.358274" level="INFO">${payload} = {'email': ' "pongpong@hotmail.com"', 'first_name': '"pong"', 'last_name': '"zaza"', 'avatar': '"https://reqres.in/img/faces/1-image.jpg"'}</msg>
<var>${payload}</var>
<arg>email= "pongpong@hotmail.com"</arg>
<arg>first_name="pong"</arg>
<arg>last_name="zaza"</arg>
<arg>avatar="https://reqres.in/img/faces/1-image.jpg"</arg>
<doc>Creates and returns a dictionary based on the given ``items``.</doc>
<status status="PASS" start="2024-04-04T13:47:35.358274" elapsed="0.000000"/>
</kw>
<kw name="POST On Session" owner="RequestsLibrary">
<msg time="2024-04-04T13:47:35.824599" level="INFO">POST Request : url=https://reqres.in/api/users 
 path_url=/api/users 
 headers={'User-Agent': 'python-requests/2.31.0', 'Accept-Encoding': 'gzip, deflate', 'Accept': '*/*', 'Connection': 'keep-alive', 'Content-Type': 'application/json', 'Content-Length': '146'} 
 body=b'{"email": " \\"pongpong@hotmail.com\\"", "first_name": "\\"pong\\"", "last_name": "\\"zaza\\"", "avatar": "\\"https://reqres.in/img/faces/1-image.jpg\\""}' 
 </msg>
<msg time="2024-04-04T13:47:35.824599" level="INFO">POST Response : url=https://reqres.in/api/users 
 status=201, reason=Created 
 headers={'Date': 'Thu, 04 Apr 2024 06:47:36 GMT', 'Content-Type': 'application/json; charset=utf-8', 'Content-Length': '189', 'Connection': 'keep-alive', 'Report-To': '{"group":"heroku-nel","max_age":3600,"endpoints":[{"url":"https://nel.heroku.com/reports?ts=1712213256&amp;sid=c4c9725f-1ab0-44d8-820f-430df2718e11&amp;s=VQsAo4aXpz1CEeea8ry9QNgN%2BfxGPhAf8Un0lViFfF4%3D"}]}', 'Reporting-Endpoints': 'heroku-nel=https://nel.heroku.com/reports?ts=1712213256&amp;sid=c4c9725f-1ab0-44d8-820f-430df2718e11&amp;s=VQsAo4aXpz1CEeea8ry9QNgN%2BfxGPhAf8Un0lViFfF4%3D', 'Nel': '{"report_to":"heroku-nel","max_age":3600,"success_fraction":0.005,"failure_fraction":0.05,"response_headers":["Via"]}', 'X-Powered-By': 'Express', 'Access-Control-Allow-Origin': '*', 'Etag': 'W/"bd-KAqmPLAobRs1WQgwGN8x/5VF/+M"', 'Via': '1.1 vegur', 'CF-Cache-Status': 'DYNAMIC', 'Server': 'cloudflare', 'CF-RAY': '86ef5910ef804b82-BKK'} 
 body={"email":" \"pongpong@hotmail.com\"","first_name":"\"pong\"","last_name":"\"zaza\"","avatar":"\"https://reqres.in/img/faces/1-image.jpg\"","id":"372","createdAt":"2024-04-04T06:47:36.128Z"} 
 </msg>
<msg time="2024-04-04T13:47:35.824599" level="INFO">C:\Users\Windows-10\AppData\Local\Programs\Python\Python311\Lib\site-packages\urllib3\connectionpool.py:1103: InsecureRequestWarning: Unverified HTTPS request is being made to host 'reqres.in'. Adding certificate verification is strongly advised. See: https://urllib3.readthedocs.io/en/latest/advanced-usage.html#tls-warnings
  warnings.warn(</msg>
<msg time="2024-04-04T13:47:35.825601" level="INFO">${response} = &lt;Response [201]&gt;</msg>
<var>${response}</var>
<arg>reqres</arg>
<arg>/users</arg>
<arg>json=${payload}</arg>
<arg>headers=${headers}</arg>
<doc>Sends a POST request on a previously created HTTP Session.</doc>
<status status="PASS" start="2024-04-04T13:47:35.358274" elapsed="0.467327"/>
</kw>
<kw name="Log" owner="BuiltIn">
<msg time="2024-04-04T13:47:35.825601" level="INFO">{'Content-Type': 'application/json'}</msg>
<arg>${headers}</arg>
<doc>Logs the given message with the given level.</doc>
<status status="PASS" start="2024-04-04T13:47:35.825601" elapsed="0.000000"/>
</kw>
<kw name="Log" owner="BuiltIn">
<msg time="2024-04-04T13:47:35.826602" level="INFO">{'email': ' "pongpong@hotmail.com"', 'first_name': '"pong"', 'last_name': '"zaza"', 'avatar': '"https://reqres.in/img/faces/1-image.jpg"'}</msg>
<arg>${payload}</arg>
<doc>Logs the given message with the given level.</doc>
<status status="PASS" start="2024-04-04T13:47:35.826602" elapsed="0.000000"/>
</kw>
<status status="PASS" start="2024-04-04T13:47:35.357273" elapsed="0.469329"/>
</test>
<test id="s1-t4" name="Patch - Update User" line="31">
<kw name="Create Session" owner="RequestsLibrary">
<msg time="2024-04-04T13:47:35.827603" level="INFO">Creating Session using : alias=reqres, url=https://reqres.in/api, headers={},                     cookies={}, auth=None, timeout=None, proxies=None, verify=False,                     debug=0 </msg>
<arg>reqres</arg>
<arg>https://reqres.in/api</arg>
<doc>Create Session: create a HTTP session to a server</doc>
<status status="PASS" start="2024-04-04T13:47:35.826602" elapsed="0.001001"/>
</kw>
<kw name="Create Dictionary" owner="BuiltIn">
<msg time="2024-04-04T13:47:35.827603" level="INFO">${headers} = {'Content-Type': 'application/json'}</msg>
<var>${headers}</var>
<arg>Content-Type=application/json</arg>
<doc>Creates and returns a dictionary based on the given ``items``.</doc>
<status status="PASS" start="2024-04-04T13:47:35.827603" elapsed="0.000000"/>
</kw>
<kw name="Create Dictionary" owner="BuiltIn">
<msg time="2024-04-04T13:47:35.827603" level="INFO">${payload} = {'email': 'pongpong@hotmail.com'}</msg>
<var>${payload}</var>
<arg>email=pongpong@hotmail.com</arg>
<doc>Creates and returns a dictionary based on the given ``items``.</doc>
<status status="PASS" start="2024-04-04T13:47:35.827603" elapsed="0.000000"/>
</kw>
<kw name="PATCH On Session" owner="RequestsLibrary">
<msg time="2024-04-04T13:47:36.294249" level="INFO">PATCH Request : url=https://reqres.in/api/users/1 
 path_url=/api/users/1 
 headers={'User-Agent': 'python-requests/2.31.0', 'Accept-Encoding': 'gzip, deflate', 'Accept': '*/*', 'Connection': 'keep-alive', 'Content-Type': 'application/json', 'Content-Length': '33'} 
 body=b'{"email": "pongpong@hotmail.com"}' 
 </msg>
<msg time="2024-04-04T13:47:36.294249" level="INFO">PATCH Response : url=https://reqres.in/api/users/1 
 status=200, reason=OK 
 headers={'Date': 'Thu, 04 Apr 2024 06:47:36 GMT', 'Content-Type': 'application/json; charset=utf-8', 'Transfer-Encoding': 'chunked', 'Connection': 'keep-alive', 'Report-To': '{"group":"heroku-nel","max_age":3600,"endpoints":[{"url":"https://nel.heroku.com/reports?ts=1712213256&amp;sid=c4c9725f-1ab0-44d8-820f-430df2718e11&amp;s=VQsAo4aXpz1CEeea8ry9QNgN%2BfxGPhAf8Un0lViFfF4%3D"}]}', 'Reporting-Endpoints': 'heroku-nel=https://nel.heroku.com/reports?ts=1712213256&amp;sid=c4c9725f-1ab0-44d8-820f-430df2718e11&amp;s=VQsAo4aXpz1CEeea8ry9QNgN%2BfxGPhAf8Un0lViFfF4%3D', 'Nel': '{"report_to":"heroku-nel","max_age":3600,"success_fraction":0.005,"failure_fraction":0.05,"response_headers":["Via"]}', 'X-Powered-By': 'Express', 'Access-Control-Allow-Origin': '*', 'Etag': 'W/"47-eXTSiJhrrYpWwSi9bhkdM+G9mtg"', 'Via': '1.1 vegur', 'CF-Cache-Status': 'DYNAMIC', 'Server': 'cloudflare', 'CF-RAY': '86ef5913ce9845b9-BKK', 'Content-Encoding': 'gzip'} 
 body={"email":"pongpong@hotmail.com","updatedAt":"2024-04-04T06:47:36.599Z"} 
 </msg>
<msg time="2024-04-04T13:47:36.294249" level="INFO">C:\Users\Windows-10\AppData\Local\Programs\Python\Python311\Lib\site-packages\urllib3\connectionpool.py:1103: InsecureRequestWarning: Unverified HTTPS request is being made to host 'reqres.in'. Adding certificate verification is strongly advised. See: https://urllib3.readthedocs.io/en/latest/advanced-usage.html#tls-warnings
  warnings.warn(</msg>
<msg time="2024-04-04T13:47:36.294249" level="INFO">${response} = &lt;Response [200]&gt;</msg>
<var>${response}</var>
<arg>reqres</arg>
<arg>/users/1</arg>
<arg>json=${payload}</arg>
<arg>headers=${headers}</arg>
<doc>Sends a PATCH request on a previously created HTTP Session.</doc>
<status status="PASS" start="2024-04-04T13:47:35.827603" elapsed="0.466646"/>
</kw>
<kw name="Status Should Be" owner="RequestsLibrary">
<arg>200</arg>
<arg>${response}</arg>
<doc>Fails if response status code is different than the expected.</doc>
<status status="PASS" start="2024-04-04T13:47:36.295250" elapsed="0.000000"/>
</kw>
<kw name="Set Variable" owner="BuiltIn">
<msg time="2024-04-04T13:47:36.295250" level="INFO">${resp_json} = {'email': 'pongpong@hotmail.com', 'updatedAt': '2024-04-04T06:47:36.599Z'}</msg>
<var>${resp_json}</var>
<arg>${response.json()}</arg>
<doc>Returns the given values which can then be assigned to a variables.</doc>
<status status="PASS" start="2024-04-04T13:47:36.295250" elapsed="0.000000"/>
</kw>
<kw name="Log" owner="BuiltIn">
<msg time="2024-04-04T13:47:36.295250" level="INFO">Response: {'email': 'pongpong@hotmail.com', 'updatedAt': '2024-04-04T06:47:36.599Z'}</msg>
<arg>Response: ${resp_json}</arg>
<doc>Logs the given message with the given level.</doc>
<status status="PASS" start="2024-04-04T13:47:36.295250" elapsed="0.000000"/>
</kw>
<status status="PASS" start="2024-04-04T13:47:35.826602" elapsed="0.469648"/>
</test>
<test id="s1-t5" name="Delete - Delete User" line="40">
<kw name="Create Session" owner="RequestsLibrary">
<msg time="2024-04-04T13:47:36.296250" level="INFO">Creating Session using : alias=reqres, url=https://reqres.in/api, headers={},                     cookies={}, auth=None, timeout=None, proxies=None, verify=False,                     debug=0 </msg>
<arg>reqres</arg>
<arg>https://reqres.in/api</arg>
<doc>Create Session: create a HTTP session to a server</doc>
<status status="PASS" start="2024-04-04T13:47:36.296250" elapsed="0.000000"/>
</kw>
<kw name="DELETE On Session" owner="RequestsLibrary">
<msg time="2024-04-04T13:47:36.760948" level="INFO">DELETE Request : url=https://reqres.in/api/users/1 
 path_url=/api/users/1 
 headers={'User-Agent': 'python-requests/2.31.0', 'Accept-Encoding': 'gzip, deflate', 'Accept': '*/*', 'Connection': 'keep-alive', 'Content-Length': '0'} 
 body=None 
 </msg>
<msg time="2024-04-04T13:47:36.760948" level="INFO">DELETE Response : url=https://reqres.in/api/users/1 
 status=204, reason=No Content 
 headers={'Date': 'Thu, 04 Apr 2024 06:47:37 GMT', 'Content-Length': '0', 'Connection': 'keep-alive', 'Report-To': '{"group":"heroku-nel","max_age":3600,"endpoints":[{"url":"https://nel.heroku.com/reports?ts=1712213257&amp;sid=c4c9725f-1ab0-44d8-820f-430df2718e11&amp;s=JlhfKi2rnd1K37CD9hNxpDIckmY0EWFzcBv%2BoKfMkr4%3D"}]}', 'Reporting-Endpoints': 'heroku-nel=https://nel.heroku.com/reports?ts=1712213257&amp;sid=c4c9725f-1ab0-44d8-820f-430df2718e11&amp;s=JlhfKi2rnd1K37CD9hNxpDIckmY0EWFzcBv%2BoKfMkr4%3D', 'Nel': '{"report_to":"heroku-nel","max_age":3600,"success_fraction":0.005,"failure_fraction":0.05,"response_headers":["Via"]}', 'X-Powered-By': 'Express', 'Access-Control-Allow-Origin': '*', 'Etag': 'W/"2-vyGp6PvFo4RvsFtPoIWeCReyIC8"', 'Via': '1.1 vegur', 'CF-Cache-Status': 'DYNAMIC', 'Server': 'cloudflare', 'CF-RAY': '86ef5916bede10ca-BKK'} 
 body=None 
 </msg>
<msg time="2024-04-04T13:47:36.760948" level="INFO">C:\Users\Windows-10\AppData\Local\Programs\Python\Python311\Lib\site-packages\urllib3\connectionpool.py:1103: InsecureRequestWarning: Unverified HTTPS request is being made to host 'reqres.in'. Adding certificate verification is strongly advised. See: https://urllib3.readthedocs.io/en/latest/advanced-usage.html#tls-warnings
  warnings.warn(</msg>
<msg time="2024-04-04T13:47:36.761950" level="INFO">${response} = &lt;Response [204]&gt;</msg>
<var>${response}</var>
<arg>reqres</arg>
<arg>/users/1</arg>
<doc>Sends a DELETE request on a previously created HTTP Session.</doc>
<status status="PASS" start="2024-04-04T13:47:36.297252" elapsed="0.464698"/>
</kw>
<kw name="Status Should Be" owner="RequestsLibrary">
<arg>204</arg>
<arg>${response}</arg>
<doc>Fails if response status code is different than the expected.</doc>
<status status="PASS" start="2024-04-04T13:47:36.761950" elapsed="0.000000"/>
</kw>
<status status="PASS" start="2024-04-04T13:47:36.296250" elapsed="0.465700"/>
</test>
<status status="PASS" start="2024-04-04T13:47:35.083467" elapsed="1.679484"/>
</suite>
<statistics>
<total>
<stat pass="5" fail="0" skip="0">All Tests</stat>
</total>
<tag>
</tag>
<suite>
<stat pass="5" fail="0" skip="0" id="s1" name="Api Test">Api Test</stat>
</suite>
</statistics>
<errors>
</errors>
</robot>
